<?xml version="1.0" encoding="UTF-8" standalone="no"?>
<!-- Created with Inkscape (http://www.inkscape.org/) -->

<svg
   xmlns:dc="http://purl.org/dc/elements/1.1/"
   xmlns:cc="http://creativecommons.org/ns#"
   xmlns:rdf="http://www.w3.org/1999/02/22-rdf-syntax-ns#"
   xmlns:svg="http://www.w3.org/2000/svg"
   xmlns="http://www.w3.org/2000/svg"
   xmlns:sodipodi="http://sodipodi.sourceforge.net/DTD/sodipodi-0.dtd"
   xmlns:inkscape="http://www.inkscape.org/namespaces/inkscape"
   width="210mm"
   height="297mm"
   viewBox="0 0 210 297"
   version="1.1"
   id="svg8"
   inkscape:version="0.92.2 (5c3e80d, 2017-08-06)"
   sodipodi:docname="Textures.svg"
   inkscape:export-filename="C:\Users\Umut\Desktop\Shield2.png"
   inkscape:export-xdpi="96"
   inkscape:export-ydpi="96">
  <defs
     id="defs2">
    <inkscape:path-effect
       effect="spiro"
       id="path-effect945"
       is_visible="true" />
    <inkscape:path-effect
       effect="spiro"
       id="path-effect941"
       is_visible="true" />
    <inkscape:path-effect
       effect="spiro"
       id="path-effect937"
       is_visible="true" />
    <inkscape:path-effect
       effect="spiro"
       id="path-effect933"
       is_visible="true" />
    <inkscape:path-effect
       effect="spiro"
       id="path-effect929"
       is_visible="true" />
    <inkscape:path-effect
       effect="spiro"
       id="path-effect925"
       is_visible="true" />
    <inkscape:path-effect
       effect="spiro"
       id="path-effect921"
       is_visible="true" />
    <inkscape:path-effect
       effect="spiro"
       id="path-effect913"
       is_visible="true" />
    <inkscape:path-effect
       effect="spiro"
       id="path-effect1032"
       is_visible="true" />
    <inkscape:path-effect
       effect="spiro"
       id="path-effect910"
       is_visible="true" />
    <inkscape:path-effect
       effect="spiro"
       id="path-effect881"
       is_visible="true" />
    <inkscape:path-effect
       effect="spiro"
       id="path-effect861"
       is_visible="true" />
    <inkscape:path-effect
       effect="spiro"
       id="path-effect16"
       is_visible="true" />
    <inkscape:path-effect
       effect="spiro"
       id="path-effect12"
       is_visible="true" />
    <inkscape:path-effect
       effect="spiro"
       id="path-effect16-7"
       is_visible="true" />
    <inkscape:path-effect
       effect="spiro"
       id="path-effect12-2"
       is_visible="true" />
    <inkscape:path-effect
       effect="spiro"
       id="path-effect16-5"
       is_visible="true" />
    <inkscape:path-effect
       effect="spiro"
       id="path-effect12-9"
       is_visible="true" />
    <inkscape:path-effect
       effect="spiro"
       id="path-effect16-6"
       is_visible="true" />
    <inkscape:path-effect
       effect="spiro"
       id="path-effect12-0"
       is_visible="true" />
    <inkscape:path-effect
       effect="spiro"
       id="path-effect16-6-7"
       is_visible="true" />
    <inkscape:path-effect
       effect="spiro"
       id="path-effect12-0-7"
       is_visible="true" />
    <inkscape:path-effect
       effect="spiro"
       id="path-effect16-9"
       is_visible="true" />
    <inkscape:path-effect
       effect="spiro"
       id="path-effect12-8"
       is_visible="true" />
    <inkscape:path-effect
       effect="spiro"
       id="path-effect16-6-5"
       is_visible="true" />
    <inkscape:path-effect
       effect="spiro"
       id="path-effect12-0-6"
       is_visible="true" />
    <inkscape:path-effect
       effect="spiro"
       id="path-effect16-58"
       is_visible="true" />
    <inkscape:path-effect
       effect="spiro"
       id="path-effect12-7"
       is_visible="true" />
    <inkscape:path-effect
       effect="spiro"
       id="path-effect861-8"
       is_visible="true" />
    <inkscape:path-effect
       effect="spiro"
       id="path-effect881-2"
       is_visible="true" />
    <inkscape:path-effect
       effect="spiro"
       id="path-effect910-1"
       is_visible="true" />
    <inkscape:path-effect
       effect="spiro"
       id="path-effect945-4"
       is_visible="true" />
    <inkscape:path-effect
       effect="spiro"
       id="path-effect941-8"
       is_visible="true" />
    <inkscape:path-effect
       effect="spiro"
       id="path-effect937-3"
       is_visible="true" />
    <inkscape:path-effect
       effect="spiro"
       id="path-effect933-5"
       is_visible="true" />
    <inkscape:path-effect
       effect="spiro"
       id="path-effect929-9"
       is_visible="true" />
    <inkscape:path-effect
       effect="spiro"
       id="path-effect925-7"
       is_visible="true" />
    <inkscape:path-effect
       effect="spiro"
       id="path-effect921-7"
       is_visible="true" />
    <inkscape:path-effect
       effect="spiro"
       id="path-effect913-5"
       is_visible="true" />
  </defs>
  <sodipodi:namedview
     id="base"
     pagecolor="#3c3939"
     bordercolor="#666666"
     borderopacity="1.0"
     inkscape:pageopacity="0"
     inkscape:pageshadow="2"
     inkscape:zoom="0.125"
     inkscape:cx="-2913.7293"
     inkscape:cy="-162.4704"
     inkscape:document-units="mm"
     inkscape:current-layer="layer1"
     showgrid="false"
     inkscape:window-width="1920"
     inkscape:window-height="1017"
     inkscape:window-x="-8"
     inkscape:window-y="-8"
     inkscape:window-maximized="1" />
  <metadata
     id="metadata5">
    <rdf:RDF>
      <cc:Work
         rdf:about="">
        <dc:format>image/svg+xml</dc:format>
        <dc:type
           rdf:resource="http://purl.org/dc/dcmitype/StillImage" />
        <dc:title />
      </cc:Work>
    </rdf:RDF>
  </metadata>
  <g
     inkscape:label="Ebene 1"
     inkscape:groupmode="layer"
     id="layer1">
    <rect
       style="fill:none;fill-opacity:1;stroke-width:2;stroke-miterlimit:4;stroke-dasharray:none"
       id="rect1139"
       width="119.44047"
       height="123.22024"
       x="-461.81131"
       y="-97.00238"
       inkscape:export-filename="C:\Users\Umut\Desktop\Shield2.png"
       inkscape:export-xdpi="96"
       inkscape:export-ydpi="96" />
    <path
       style="fill:none;fill-opacity:1;stroke:#ffffff;stroke-width:7;stroke-miterlimit:4;stroke-dasharray:none;stroke-opacity:1"
       d="m -410.67608,12.572867 c -5.82881,-2.03674 -13.12303,-6.8292897 -18.5591,-12.19391973 -9.01918,-8.90066997 -14.81417,-19.71632027 -17.67503,-32.98831027 -0.75117,-3.48481 -0.85737,-5.07491 -0.87086,-13.04018 -0.0124,-7.30101 0.12228,-9.8091 0.68994,-12.85119 1.22173,-6.54723 4.53416,-16.44196 5.50422,-16.44196 0.19824,0 0.46231,0.16483 0.58682,0.36629 0.12451,0.20147 1.58909,0.79678 3.25461,1.32292 2.67049,0.84361 3.68762,0.95662 8.60976,0.95662 6.1908,0 7.98737,-0.36343 12.14389,-2.45662 2.67853,-1.34889 6.35914,-3.99278 8.08718,-5.80926 l 1.09417,-1.15018 2.4966,2.28885 c 3.08387,2.82725 6.57384,4.89844 10.44171,6.19684 2.80346,0.94109 3.27697,0.98529 9.2223,0.86079 6.58648,-0.13792 6.29775,-0.0773 11.63162,-2.44076 0.8977,-0.39776 4.11885,7.32085 5.7953,13.88686 1.89033,7.40367 2.42918,18.17838 1.30003,25.99461 -1.85201,12.81997 -7.38983,24.32465 -16.1535,33.5584803 -5.97249,6.2929 -14.2542,11.5937397 -21.63074,13.8450997 -3.16716,0.96663 -3.46114,0.97131 -5.96892,0.095 z"
       id="path1151"
       inkscape:connector-curvature="0"
       inkscape:export-xdpi="96"
       inkscape:export-ydpi="96"
       inkscape:export-filename="C:\Users\Umut\Desktop\ShieldOut.png" />
    <rect
       style="fill:none;fill-opacity:1;stroke-width:2;stroke-miterlimit:4;stroke-dasharray:none"
       id="rect1139-8"
       width="119.44048"
       height="123.22024"
       x="-320.33484"
       y="-97.720535"
       inkscape:export-filename="C:\Users\Umut\Desktop\Shield2.png"
       inkscape:export-xdpi="96"
       inkscape:export-ydpi="96" />
    <path
       style="fill:#ffffff;fill-opacity:1;stroke:#ffffff;stroke-width:2.85714293;stroke-miterlimit:4;stroke-dasharray:none;stroke-opacity:1"
       d="m -269.19959,11.854717 c -5.82881,-2.0367399 -13.12304,-6.8292899 -18.5591,-12.19391986 -9.01918,-8.90067004 -14.81418,-19.71632014 -17.67504,-32.98831014 -0.75117,-3.48481 -0.85736,-5.07491 -0.87086,-13.04018 -0.0124,-7.30101 0.12228,-9.8091 0.68994,-12.85119 1.22174,-6.54723 4.53416,-16.44196 5.50422,-16.44196 0.19824,0 0.46231,0.16483 0.58682,0.36629 0.12451,0.20147 1.58909,0.79678 3.25462,1.32292 2.67048,0.84361 3.68761,0.95662 8.60976,0.95662 6.19079,0 7.98737,-0.36343 12.14388,-2.45662 2.67854,-1.34889 6.35915,-3.99278 8.08719,-5.80926 l 1.09417,-1.15018 2.4966,2.28885 c 3.08387,2.82725 6.57384,4.89844 10.44171,6.19684 2.80346,0.94109 3.27697,0.98529 9.2223,0.86079 6.58648,-0.13792 6.29775,-0.0773 11.63162,-2.44076 0.8977,-0.39776 4.11885,7.32085 5.7953,13.88686 1.89033,7.40367 2.42918,18.17838 1.30003,25.99461 -1.85201,12.81997 -7.38983,24.32465 -16.1535,33.5584801 -5.97249,6.2929 -14.2542,11.59374 -21.63074,13.8450999 -3.16716,0.96663 -3.46114,0.97131 -5.96892,0.095 z"
       id="path1151-9"
       inkscape:connector-curvature="0"
       inkscape:export-xdpi="96"
       inkscape:export-ydpi="96"
       inkscape:export-filename="C:\Users\Umut\Desktop\Shield2.png" />
    <path
       style="fill:#ffffff;fill-opacity:1;stroke:#ffffff;stroke-width:1.79113781;stroke-linecap:butt;stroke-linejoin:miter;stroke-miterlimit:4;stroke-dasharray:none;stroke-opacity:1"
       d="m -406.20819,67.080361 -49.10894,59.434299 h 22.65196 l 11.09252,-13.42475 V 188.234"
       id="path870"
       inkscape:connector-curvature="0"
       inkscape:export-filename="C:\Users\Umut\Desktop\ArrowUppng.png"
       inkscape:export-xdpi="96"
       inkscape:export-ydpi="96" />
    <path
       style="fill:#ffffff;fill-opacity:1;stroke:#ffffff;stroke-width:1.79113781;stroke-linecap:butt;stroke-linejoin:miter;stroke-miterlimit:4;stroke-dasharray:none;stroke-opacity:1"
       d="M -406.20819,67.080361 -406.37626,188.234"
       id="path872"
       inkscape:connector-curvature="0"
       sodipodi:nodetypes="cc"
       inkscape:export-filename="C:\Users\Umut\Desktop\ArrowUppng.png"
       inkscape:export-xdpi="96"
       inkscape:export-ydpi="96" />
    <path
       style="fill:#ffffff;fill-opacity:1;stroke:#ffffff;stroke-width:1.79113781;stroke-linecap:butt;stroke-linejoin:miter;stroke-miterlimit:4;stroke-dasharray:none;stroke-opacity:1"
       d="m -421.57265,188.234 h 15.19639"
       id="path874"
       inkscape:connector-curvature="0"
       inkscape:export-filename="C:\Users\Umut\Desktop\ArrowUppng.png"
       inkscape:export-xdpi="96"
       inkscape:export-ydpi="96" />
    <path
       style="fill:#ffffff;fill-opacity:1;stroke:#ffffff;stroke-width:1.79113781;stroke-linecap:butt;stroke-linejoin:miter;stroke-miterlimit:4;stroke-dasharray:none;stroke-opacity:1"
       d="m -406.54434,67.080361 49.10896,59.434299 h -22.65197 l -11.09251,-13.42475 V 188.234"
       id="path870-5"
       inkscape:connector-curvature="0"
       inkscape:export-filename="C:\Users\Umut\Desktop\ArrowUppng.png"
       inkscape:export-xdpi="96"
       inkscape:export-ydpi="96" />
    <path
       style="fill:#ffffff;fill-opacity:1;stroke:#ffffff;stroke-width:1.79113781;stroke-linecap:butt;stroke-linejoin:miter;stroke-miterlimit:4;stroke-dasharray:none;stroke-opacity:1"
       d="M -406.54434,67.080361 -406.37626,188.234"
       id="path872-6"
       inkscape:connector-curvature="0"
       sodipodi:nodetypes="cc"
       inkscape:export-filename="C:\Users\Umut\Desktop\ArrowUppng.png"
       inkscape:export-xdpi="96"
       inkscape:export-ydpi="96" />
    <path
       style="fill:#ffffff;fill-opacity:1;stroke:#ffffff;stroke-width:1.79113781;stroke-linecap:butt;stroke-linejoin:miter;stroke-miterlimit:4;stroke-dasharray:none;stroke-opacity:1"
       d="m -391.17986,188.234 h -15.1964"
       id="path874-5"
       inkscape:connector-curvature="0"
       inkscape:export-filename="C:\Users\Umut\Desktop\ArrowUppng.png"
       inkscape:export-xdpi="96"
       inkscape:export-ydpi="96" />
    <path
       style="fill:#ffffff;fill-opacity:1;stroke:#ffffff;stroke-width:1.83407056;stroke-miterlimit:4;stroke-dasharray:none;stroke-opacity:1"
       d="m -405.33458,132.85133 c 0.0597,-29.91454 0.11861,-54.404069 0.1309,-54.421189 0.0123,-0.0171 2.95241,23.093599 6.53362,51.357159 l 6.51127,51.3883 -0.005,3.03289 -0.005,3.03291 h -6.63736 -6.63734 z"
       id="path897"
       inkscape:connector-curvature="0"
       inkscape:export-filename="C:\Users\Umut\Desktop\ArrowUppng.png"
       inkscape:export-xdpi="96"
       inkscape:export-ydpi="96" />
    <path
       style="fill:#ffffff;fill-opacity:1;stroke:#ffffff;stroke-width:1.83407056;stroke-miterlimit:4;stroke-dasharray:none;stroke-opacity:1"
       d="m -421.44604,188.61632 c 0,-0.34149 -0.0755,-0.40439 -0.48526,-0.40439 h -0.48527 v -36.32351 c 0,-21.90051 -0.0587,-36.28722 -0.14785,-36.23212 -0.0814,0.0503 -2.31104,2.71138 -4.95493,5.9136 l -4.80704,5.8222 h -12.37266 c -9.87559,0 -12.34038,-0.0408 -12.21272,-0.20219 0.48182,-0.60908 49.60866,-60.087229 49.78044,-60.269459 0.15465,-0.16405 0.28599,-0.1749 0.53088,-0.0439 0.24851,0.13299 0.37087,0.11937 0.51776,-0.0576 0.15784,-0.1902 4.68669,5.20742 25.25074,30.09464 13.78211,16.679519 25.05838,30.360619 25.05838,30.402449 0,0.0418 -5.55021,0.0748 -12.3338,0.0733 l -12.33382,-0.003 -4.85264,-5.89737 c -2.66895,-3.24355 -4.90723,-5.89913 -4.97396,-5.90129 -0.0667,-0.002 -0.12132,16.33737 -0.12132,36.31004 v 36.31396 h -0.40438 c -0.32351,0 -0.40439,0.0808 -0.40439,0.40439 v 0.40439 h -7.51086 -7.51084 l -0.0674,-0.44483 -0.0674,-0.44483 -0.0242,0.44483 -0.0242,0.44483 h -7.5216 -7.5216 z m 14.23439,-23.33314 c -4e-5,-24.32104 -0.19936,-89.068039 -0.27297,-88.682089 -0.0255,0.13345 -3.00686,23.535329 -6.62532,52.004179 -6.51637,51.26854 -6.57971,51.79505 -6.6499,55.27972 l -0.0708,3.51817 h 6.80954 6.80954 z m 3.56887,-75.943899 c -0.31701,-2.51326 -0.59794,-4.31347 -0.62433,-4.00047 -0.0264,0.313 0.1738,2.32298 0.44483,4.46662 0.27104,2.14365 0.49279,3.94386 0.49279,4.00048 0,0.0566 0.0592,0.10295 0.13153,0.10295 0.0723,0 -0.12783,-2.05631 -0.44482,-4.56958 z m -1.55587,-6.42076 c -0.0631,-0.72282 -0.14937,-1.27948 -0.19181,-1.23704 -0.0424,0.0424 -0.0249,0.66785 0.039,1.3898 0.0639,0.72195 0.15023,1.27862 0.19181,1.23704 0.0416,-0.0416 0.024,-0.667 -0.039,-1.3898 z m -0.0324,-6.11523 c -0.11243,-1.04679 -0.20123,-1.07653 -0.20123,-0.0674 0,0.45966 0.0639,0.83574 0.14189,0.83574 0.078,0 0.10474,-0.34576 0.0593,-0.76834 z"
       id="path899"
       inkscape:connector-curvature="0"
       inkscape:export-filename="C:\Users\Umut\Desktop\ArrowUppng.png"
       inkscape:export-xdpi="96"
       inkscape:export-ydpi="96" />
    <path
       style="fill:#ffffff;fill-opacity:1;stroke:#ffffff;stroke-width:1.83407056;stroke-miterlimit:4;stroke-dasharray:none;stroke-opacity:1"
       d="m -419.77093,183.88499 c 0.17337,-4.09772 0.84157,-9.58904 8.2195,-67.54883 l 3.12666,-24.562469 0.0976,21.570009 c 0.0537,11.8635 0.10828,33.16177 0.12132,47.32947 l 0.0237,25.75945 h -5.84829 -5.8483 z"
       id="path901"
       inkscape:connector-curvature="0"
       inkscape:export-filename="C:\Users\Umut\Desktop\ArrowUppng.png"
       inkscape:export-xdpi="96"
       inkscape:export-ydpi="96" />
    <rect
       style="fill:#ffffff;fill-opacity:1;stroke:#ffffff;stroke-width:3;stroke-miterlimit:4;stroke-dasharray:none;stroke-opacity:1"
       id="rect903"
       width="9.728611"
       height="19.083044"
       x="-400.74396"
       y="108.78879"
       inkscape:export-filename="C:\Users\Umut\Desktop\ArrowUppng.png"
       inkscape:export-xdpi="96"
       inkscape:export-ydpi="96" />
    <rect
       style="fill:#ffffff;fill-opacity:1;stroke:#ffffff;stroke-width:3;stroke-miterlimit:4;stroke-dasharray:none;stroke-opacity:1"
       id="rect903-1"
       width="9.728611"
       height="19.083044"
       x="-413.57941"
       y="83.133995"
       inkscape:export-filename="C:\Users\Umut\Desktop\ArrowUppng.png"
       inkscape:export-xdpi="96"
       inkscape:export-ydpi="96" />
    <rect
       style="fill:#ffffff;fill-opacity:1;stroke:#ffffff;stroke-width:9.83300209;stroke-miterlimit:4;stroke-dasharray:none;stroke-opacity:1"
       id="rect903-8"
       width="22.023115"
       height="90.562729"
       x="-417.5332"
       y="90.802895"
       inkscape:export-filename="C:\Users\Umut\Desktop\ArrowUppng.png"
       inkscape:export-xdpi="96"
       inkscape:export-ydpi="96" />
    <path
       style="fill:none;fill-opacity:1;stroke:#ffffff;stroke-width:5;stroke-linecap:butt;stroke-linejoin:miter;stroke-miterlimit:4;stroke-dasharray:none;stroke-opacity:1"
       d="m -265.6822,67.017377 -49.10894,59.434303 h 22.65196 l 11.09252,-13.42475 v 75.14409"
       id="path870-0"
       inkscape:connector-curvature="0"
       inkscape:export-filename="C:\Users\Umut\Desktop\ArrowUpOut.png"
       inkscape:export-xdpi="96"
       inkscape:export-ydpi="96" />
    <path
       style="fill:none;fill-opacity:1;stroke:#ffffff;stroke-width:5;stroke-linecap:butt;stroke-linejoin:miter;stroke-miterlimit:4;stroke-dasharray:none;stroke-opacity:1"
       d="m -281.04666,188.17102 h 15.19639"
       id="path874-1"
       inkscape:connector-curvature="0"
       inkscape:export-filename="C:\Users\Umut\Desktop\ArrowUpOut.png"
       inkscape:export-xdpi="96"
       inkscape:export-ydpi="96" />
    <path
       style="fill:none;fill-opacity:1;stroke:#ffffff;stroke-width:5;stroke-linecap:butt;stroke-linejoin:miter;stroke-miterlimit:4;stroke-dasharray:none;stroke-opacity:1"
       d="m -266.01835,67.017377 49.10896,59.434303 h -22.65197 l -11.09251,-13.42475 v 75.14409"
       id="path870-5-5"
       inkscape:connector-curvature="0"
       inkscape:export-filename="C:\Users\Umut\Desktop\ArrowUpOut.png"
       inkscape:export-xdpi="96"
       inkscape:export-ydpi="96" />
    <path
       style="fill:none;fill-opacity:1;stroke:#ffffff;stroke-width:5;stroke-linecap:butt;stroke-linejoin:miter;stroke-miterlimit:4;stroke-dasharray:none;stroke-opacity:1"
       d="m -250.65387,188.17102 h -15.1964"
       id="path874-5-9"
       inkscape:connector-curvature="0"
       inkscape:export-filename="C:\Users\Umut\Desktop\ArrowUpOut.png"
       inkscape:export-xdpi="96"
       inkscape:export-ydpi="96" />
    <path
       style="fill:none;stroke:#ffffff;stroke-width:8;stroke-linecap:butt;stroke-linejoin:miter;stroke-miterlimit:4;stroke-dasharray:none;stroke-opacity:1"
       d="m -258.83306,244.27794 c -0.55998,6.24537 -1.60896,12.44683 -3.13419,18.52893 -1.39427,5.55987 -3.19184,11.03363 -5.65258,16.21059 -0.84682,1.78157 -1.77097,3.52564 -2.73729,5.24532 -3.76979,6.70881 -8.1767,13.0399 -12.04406,19.69294 -2.75386,4.73748 -5.22968,9.63053 -7.6644,14.53966 -2.22271,4.48165 -4.42299,9.00566 -5.83955,13.80347 -1.53703,5.20584 -2.12534,10.71699 -1.45989,16.10405 0.31009,2.51025 0.89007,4.98707 1.72672,7.37401 1.39512,3.83368 3.33947,7.46702 5.7552,10.75454 4.10134,5.58143 9.55484,10.13606 15.69378,13.34335 4.06341,2.12293 8.47831,3.67683 13.04773,4.04902 4.69001,0.38202 9.42012,-0.49145 13.86892,-2.0245 5.74357,-1.97922 11.12933,-5.0867 15.51129,-9.29434 4.90668,-4.71149 8.47975,-10.73955 10.58418,-17.20832 1.56052,-4.79685 2.33352,-9.874 2.00734,-14.90775 -0.43987,-6.78821 -2.85024,-13.30645 -5.83954,-19.41688 -1.87956,-3.84201 -3.99546,-7.56432 -6.20452,-11.22682 -4.59044,-7.61069 -9.58616,-14.96983 -14.23389,-22.54567 -3.86126,-6.29389 -7.50355,-12.7852 -9.85423,-19.78496 -1.84321,-5.48863 -2.86965,-11.23348 -3.29838,-17.00744 -0.15389,-2.07261 -0.23151,-4.15088 -0.23264,-6.2292"
       id="path859"
       inkscape:connector-curvature="0"
       inkscape:path-effect="#path-effect861"
       inkscape:original-d="m -258.83306,244.27794 c -0.042,-0.20303 -2.25199,15.61469 -3.13419,18.52893 -0.88218,2.91424 -3.37133,11.57857 -5.65258,16.21059 -2.28126,4.63202 -1.82468,3.4967 -2.73729,5.24532 -0.91261,1.74862 -8.0292,13.12844 -12.04406,19.69294 -4.01487,6.56451 -5.10942,9.69293 -7.6644,14.53966 -2.55499,4.84673 -3.89284,9.20213 -5.83955,13.80347 -1.94671,4.60134 -0.97307,10.73584 -1.45989,16.10405 -0.48682,5.3682 1.05778,5.16527 1.72672,7.37401 -2.55019,10.25654 3.93052,6.92007 5.7552,10.75454 1.82468,3.83448 10.4627,8.89538 15.69378,13.34335 5.23108,4.44798 8.69868,2.69917 13.04773,4.04902 4.34906,1.34985 9.24614,-1.34985 13.86892,-2.0245 4.62279,-0.67467 10.34105,-6.19642 15.51129,-9.29434 5.17024,-3.09793 7.05631,-11.4724 10.58418,-17.20832 3.52787,-5.73594 1.33841,-9.93869 2.00734,-14.90775 0.66894,-4.96907 -3.89284,-12.94477 -5.83954,-19.41688 -1.9467,-6.47211 -4.13617,-7.48474 -6.20452,-11.22682 -2.06835,-3.74209 -9.48908,-15.03064 -14.23389,-22.54567 -4.74481,-7.51503 -6.5693,-13.19017 -9.85423,-19.78496 -3.28493,-6.59481 -2.39717,-13.49925 -3.29838,-17.00744 -0.90121,-3.5082 -0.22104,-6.13737 -0.23264,-6.2292"
       sodipodi:nodetypes="cccsscsscccsccccscscsc" />
    <path
       style="fill:none;stroke:#ffffff;stroke-width:8;stroke-linecap:butt;stroke-linejoin:miter;stroke-miterlimit:4;stroke-dasharray:none;stroke-opacity:1"
       d="m -403.52574,250.02186 c -0.55999,6.24537 -1.60897,12.44683 -3.1342,18.52893 -1.39426,5.55986 -3.19184,11.03364 -5.65257,16.21059 -0.84682,1.78157 -1.77097,3.52564 -2.73729,5.24532 -3.76979,6.70881 -8.1767,13.0399 -12.04406,19.69294 -2.75386,4.73748 -5.22968,9.63053 -7.66441,14.53966 -2.22271,4.48165 -4.42298,9.00566 -5.83954,13.80347 -1.53703,5.20584 -2.12534,10.71699 -1.45989,16.10405 0.31009,2.51025 0.89007,4.98707 1.72672,7.37401 1.39524,3.83363 3.33958,7.46695 5.75519,10.75454 4.10117,5.5816 9.55441,10.1368 15.69378,13.34335 4.0636,2.12239 8.47854,3.67507 13.04774,4.04902 4.69014,0.38385 9.42202,-0.48506 13.86891,-2.0245 5.73922,-1.98682 11.10556,-5.11395 15.5113,-9.29434 4.9407,-4.68799 8.62874,-10.68421 10.58418,-17.20832 1.35625,-4.92304 1.85867,-10.08008 1.47817,-15.17233 -0.49639,-6.6432 -2.48392,-13.11991 -5.31037,-19.1523 -1.81507,-3.87383 -3.97342,-7.57672 -6.20452,-11.22682 -4.63528,-7.58338 -9.59705,-14.96325 -14.23389,-22.54567 -3.85213,-6.29922 -7.50127,-12.7862 -9.85423,-19.78496 -1.84507,-5.48806 -2.87006,-11.2334 -3.29838,-17.00744 -0.15375,-2.07262 -0.23137,-4.15089 -0.23264,-6.2292"
       id="path859-6"
       inkscape:connector-curvature="0"
       inkscape:path-effect="#path-effect861-8"
       inkscape:original-d="m -403.52574,250.02186 c -0.042,-0.20303 -2.252,15.61469 -3.1342,18.52893 -0.88217,2.91424 -3.37132,11.57857 -5.65257,16.21059 -2.28127,4.63202 -1.82469,3.4967 -2.73729,5.24532 -0.91262,1.74862 -8.0292,13.12844 -12.04406,19.69294 -4.01487,6.56451 -5.10942,9.69293 -7.66441,14.53966 -2.55498,4.84673 -3.89283,9.20213 -5.83954,13.80347 -1.94671,4.60134 -0.97307,10.73584 -1.45989,16.10405 -0.48682,5.3682 1.05778,5.16527 1.72672,7.37401 -2.55019,10.25654 3.93052,6.92007 5.75519,10.75454 1.82468,3.83448 10.46271,8.89538 15.69378,13.34335 5.23108,4.44798 8.69868,2.69917 13.04774,4.04902 4.34906,1.34985 9.24614,-1.34985 13.86891,-2.0245 4.62279,-0.67467 10.34106,-6.19642 15.5113,-9.29434 5.17024,-3.09793 7.05631,-11.4724 10.58418,-17.20832 60.90462,-84.85853 0.75883,-6.05848 1.47817,-15.17233 1.16736,-8.35832 2.39954,-51.87006 -5.31037,-19.1523 -1.55018,6.57836 -4.13617,-7.48474 -6.20452,-11.22682 -2.06835,-3.74209 -9.48909,-15.03064 -14.23389,-22.54567 -4.74481,-7.51503 -6.5693,-13.19017 -9.85423,-19.78496 -3.28494,-6.59481 -2.39717,-13.49925 -3.29838,-17.00744 -0.90121,-3.5082 -0.22105,-6.13737 -0.23264,-6.2292"
       sodipodi:nodetypes="cccsscsscccsccccscscsc" />
    <path
       style="fill:none;fill-opacity:1;stroke:#ffffff;stroke-width:10;stroke-miterlimit:4;stroke-dasharray:none;stroke-opacity:1"
       d="m -409.9698,384.60038 c -6.43215,-1.77403 -13.09172,-5.98638 -18.2281,-11.52974 -10.02395,-10.81826 -12.41002,-24.20014 -6.78386,-38.04624 2.26179,-5.56628 9.97392,-20.55175 13.71602,-26.65172 9.40316,-15.32789 11.12658,-18.28673 12.94532,-22.225 1.07527,-2.32833 2.37591,-5.54302 2.89029,-7.14374 1.25089,-3.89253 1.62951,-4.17046 2.4094,-1.76851 1.73617,5.34723 6.60154,13.99038 17.52766,31.13725 10.99305,17.25192 14.59985,24.6852 16.60652,34.22465 0.68319,3.24768 0.658,4.31832 -0.26162,11.12118 -0.90826,6.71885 -1.2578,8.01235 -3.25387,12.04055 -6.70229,13.52582 -24.49174,22.44773 -37.56776,18.84132 z"
       id="path883"
       inkscape:connector-curvature="0" />
    <path
       style="fill:none;fill-opacity:1;stroke:#ffffff;stroke-width:10;stroke-miterlimit:4;stroke-dasharray:none;stroke-opacity:1"
       d="m -409.13798,379.33605 c -4.66669,-1.46217 -9.89862,-4.7475 -13.93949,-8.75316 -8.4314,-8.35792 -11.29117,-18.05437 -8.52948,-28.92036 1.42388,-5.60229 8.90093,-20.51481 17.41477,-34.73267 3.7075,-6.19146 7.55541,-12.74263 8.55094,-14.5582 0.99552,-1.81554 1.9291,-3.30358 2.07462,-3.30673 0.14552,-0.003 0.95758,1.24417 1.80454,2.77182 0.84698,1.52768 5.47359,9.08791 10.28136,16.80052 16.75408,26.87677 19.08456,33.38025 16.75289,46.75097 -1.6659,9.55294 -7.21217,16.74757 -16.53201,21.44533 -6.12598,3.0879 -12.95768,4.04413 -17.87814,2.50248 z"
       id="path885"
       inkscape:connector-curvature="0" />
    <path
       style="fill:none;fill-opacity:1;stroke:#ffffff;stroke-width:10;stroke-miterlimit:4;stroke-dasharray:none;stroke-opacity:1"
       d="m -409.47699,373.52408 c -7.67837,-3.1582 -14.90982,-10.907 -17.06314,-18.2839 -1.93878,-6.64186 -0.89326,-11.65217 4.92147,-23.58416 4.65915,-9.56078 17.3424,-31.97916 18.10639,-32.00416 0.27294,-0.009 9.81506,15.32694 16.02247,25.75094 2.96746,4.98316 6.52984,12.77898 7.44493,16.29222 1.54845,5.94487 0.68487,13.78426 -2.15802,19.5902 -2.69761,5.50926 -9.72378,10.95947 -16.35514,12.68672 -4.31416,1.12369 -7.40646,0.99684 -10.91896,-0.44786 z"
       id="path887"
       inkscape:connector-curvature="0" />
    <path
       style="fill:none;fill-opacity:1;stroke:#ffffff;stroke-width:10;stroke-miterlimit:4;stroke-dasharray:none;stroke-opacity:1"
       d="m -408.77632,367.93526 c -4.29109,-2.0723 -9.41845,-7.15291 -11.46802,-11.36348 -2.09116,-4.29599 -2.33505,-8.25151 -0.79523,-12.89627 1.84237,-5.55731 14.95531,-31.01049 17.18289,-33.35324 0.53731,-0.56507 1.92137,1.39485 7.34716,10.40405 11.60822,19.27479 13.25827,24.20736 11.16975,33.38986 -1.4206,6.24594 -5.14924,10.63236 -11.51538,13.54688 -4.71186,2.15717 -7.86865,2.22924 -11.92117,0.2722 z"
       id="path889"
       inkscape:connector-curvature="0" />
    <path
       style="fill:none;fill-opacity:1;stroke:#ffffff;stroke-width:10;stroke-miterlimit:4;stroke-dasharray:none;stroke-opacity:1"
       d="m -406.56914,363.10558 c -3.15216,-1.5603 -7.51483,-6.10132 -9.04761,-9.41744 -1.0414,-2.25312 -1.25024,-3.36093 -1.0123,-5.37007 0.3361,-2.83789 3.94232,-11.04349 9.49828,-21.61246 l 3.71507,-7.06707 1.96294,3.09832 c 3.22234,5.08614 8.93487,15.59089 10.17397,18.70874 1.78504,4.49165 1.65664,10.4335 -0.31242,14.4581 -1.6805,3.43485 -4.83021,6.12561 -8.76236,7.48562 -3.0343,1.04947 -3.57183,1.02492 -6.21557,-0.28374 z"
       id="path891"
       inkscape:connector-curvature="0" />
    <rect
       style="fill:#ffffff;fill-opacity:1;stroke:#ffffff;stroke-width:10;stroke-miterlimit:4;stroke-dasharray:none;stroke-opacity:1"
       id="rect896"
       width="38.099998"
       height="41.804165"
       x="-422.63812"
       y="323.29877" />
    <rect
       style="fill:none;fill-opacity:1;stroke-width:2;stroke-miterlimit:4;stroke-dasharray:none"
       id="rect1139-8-3"
       width="119.44048"
       height="123.22024"
       x="-339.60489"
       y="-228.59001"
       inkscape:export-filename="C:\Users\Umut\Desktop\Shield2.png"
       inkscape:export-xdpi="96"
       inkscape:export-ydpi="96" />
    <path
       style="fill:#ffffff;fill-opacity:1;stroke:#ffffff;stroke-width:2.85714293;stroke-miterlimit:4;stroke-dasharray:none;stroke-opacity:1"
       d="m -395.25996,-196.38584 c -1.89696,1.74431 -5.0201,3.92659 -7.37164,5.1108 -4.15649,2.09319 -5.95264,2.45618 -12.14345,2.45618 -4.92214,0 -5.93931,-0.11292 -8.6098,-0.95653 -1.66553,-0.52614 -3.13007,-1.12144 -3.25459,-1.32291 -0.12451,-0.20146 -0.3888,-0.36639 -0.58703,-0.36639 -0.97007,0 -4.28233,9.89518 -5.50407,16.44241 -0.56764,3.04209 -0.70226,5.54989 -0.68988,12.85089 0.0135,7.96527 0.11959,9.55522 0.87075,13.04003 2.86086,13.272 8.65571,24.08803 17.6749,32.98869 5.43605,5.36463 12.73027,10.15683 18.55907,12.19357 2.50777,0.87631 2.80199,0.87154 5.96913,-0.0951 0.56986,-0.17391 1.1453,-0.36786 1.72445,-0.57722 l -11.85302,-18.28778 13.75834,-28.575 -18.52084,-25.4 z"
       id="path1151-9-9"
       inkscape:connector-curvature="0"
       inkscape:export-filename="G:\DeepForest\Assets\Resources\Effects\JMO Assets\Cartoon FX\Textures\BrokenShield.png"
       inkscape:export-xdpi="96"
       inkscape:export-ydpi="96" />
    <rect
       style="fill:none;fill-opacity:1;stroke-width:0.98865712;stroke-miterlimit:4;stroke-dasharray:none"
       id="rect1139-8-3-8"
       width="59.042843"
       height="60.911285"
       x="-562.20276"
       y="-115.2413"
       inkscape:export-filename="C:\Users\Umut\Desktop\Shield2.png"
       inkscape:export-xdpi="96"
       inkscape:export-ydpi="96" />
    <path
       style="fill:#ffffff;fill-opacity:1;stroke:#ffffff;stroke-width:2.85714293;stroke-miterlimit:4;stroke-dasharray:none;stroke-opacity:1"
       d="m -297.80797,-198.01641 -0.71623,0.75293 -11.07117,20.59771 18.52083,25.4 -13.75833,28.575 11.85304,18.28777 c 6.91808,-2.50084 14.39508,-7.46109 19.90627,-13.26792 8.76366,-9.23382 14.30152,-20.73819 16.15353,-33.55816 1.12916,-7.81623 0.59015,-18.59113 -1.30017,-25.9948 -1.67645,-6.566 -4.89783,-14.28476 -5.79551,-13.887 -5.33389,2.36346 -5.04486,2.30327 -11.63135,2.44119 -5.94532,0.1245 -6.41871,0.0802 -9.22218,-0.86093 -3.86787,-1.2984 -7.35785,-3.36979 -10.44173,-6.19704 z"
       id="path1151-9-9-7"
       inkscape:connector-curvature="0"
       inkscape:export-filename="G:\DeepForest\Assets\Resources\Effects\JMO Assets\Cartoon FX\Textures\BrokenShield.png"
       inkscape:export-xdpi="96"
       inkscape:export-ydpi="96" />
    <ellipse
       style="opacity:1;fill:none;fill-opacity:1;stroke:#fbffff;stroke-width:4.94328594;stroke-linecap:round;stroke-miterlimit:4;stroke-dasharray:none;stroke-dashoffset:0;stroke-opacity:1"
       id="path862"
       cx="-543.24957"
       cy="-34.354282"
       rx="41.591568"
       ry="38.97575"
       inkscape:export-filename="Z:\DeepForest\Assets\Resources\Effects\JMO Assets\Cartoon FX\Textures\Timer.png"
       inkscape:export-xdpi="96"
       inkscape:export-ydpi="96" />
    <path
       style="fill:none;stroke:#ffffff;stroke-width:4.94328594;stroke-linecap:butt;stroke-linejoin:miter;stroke-miterlimit:4;stroke-dasharray:none;stroke-opacity:1"
       d="m -567.79599,-76.958296 -21.96646,20.138479"
       id="path868"
       inkscape:connector-curvature="0"
       sodipodi:nodetypes="cc"
       inkscape:export-filename="Z:\DeepForest\Assets\Resources\Effects\JMO Assets\Cartoon FX\Textures\Timer.png"
       inkscape:export-xdpi="96"
       inkscape:export-ydpi="96" />
    <path
       style="fill:none;stroke:#ffffff;stroke-width:4.94328594;stroke-linecap:butt;stroke-linejoin:miter;stroke-miterlimit:4;stroke-dasharray:none;stroke-opacity:1"
       d="m -588.08275,-58.624644 c -2.64266,-2.315907 -4.23632,-5.785773 -4.27111,-9.299439 -0.0348,-3.513666 1.48986,-7.014408 4.08614,-9.382186 2.6166,-2.386308 6.27942,-3.58169 9.79994,-3.198267 3.52052,0.383422 6.84013,2.339268 8.88169,5.2329"
       id="path879"
       inkscape:connector-curvature="0"
       inkscape:path-effect="#path-effect881"
       inkscape:original-d="m -588.08275,-58.624644 c -0.0615,-6.227347 -0.12325,-12.454556 -0.18497,-18.681625 -0.0618,-6.22707 12.45454,1.356292 18.68163,2.034633"
       inkscape:export-filename="Z:\DeepForest\Assets\Resources\Effects\JMO Assets\Cartoon FX\Textures\Timer.png"
       inkscape:export-xdpi="96"
       inkscape:export-ydpi="96" />
    <path
       style="fill:none;stroke:#ffffff;stroke-width:4.94328594;stroke-linecap:butt;stroke-linejoin:miter;stroke-miterlimit:4;stroke-dasharray:none;stroke-opacity:1"
       d="m -517.15781,-77.102877 21.96646,20.13848"
       id="path868-9"
       inkscape:connector-curvature="0"
       sodipodi:nodetypes="cc"
       inkscape:export-filename="Z:\DeepForest\Assets\Resources\Effects\JMO Assets\Cartoon FX\Textures\Timer.png"
       inkscape:export-xdpi="96"
       inkscape:export-ydpi="96" />
    <path
       style="fill:none;stroke:#ffffff;stroke-width:4.94328594;stroke-linecap:butt;stroke-linejoin:miter;stroke-miterlimit:4;stroke-dasharray:none;stroke-opacity:1"
       d="m -496.87105,-58.769237 c 2.64265,-2.315906 4.23632,-5.78577 4.27111,-9.299433 0.0348,-3.513664 -1.48986,-7.014403 -4.08614,-9.38218 -2.6166,-2.386309 -6.27942,-3.581692 -9.79994,-3.198269 -3.52052,0.383423 -6.84013,2.33927 -8.88169,5.232903"
       id="path879-9"
       inkscape:connector-curvature="0"
       inkscape:path-effect="#path-effect881-2"
       inkscape:original-d="m -496.87105,-58.769237 c 0.0615,-6.227334 0.12325,-12.454543 0.18497,-18.681613 0.0617,-6.22707 -12.45454,1.356292 -18.68163,2.034634"
       inkscape:export-filename="Z:\DeepForest\Assets\Resources\Effects\JMO Assets\Cartoon FX\Textures\Timer.png"
       inkscape:export-xdpi="96"
       inkscape:export-ydpi="96" />
    <rect
       style="opacity:1;fill:none;fill-opacity:1;stroke:#ffffff;stroke-width:4.94328594;stroke-linecap:round;stroke-miterlimit:4;stroke-dasharray:none;stroke-dashoffset:0;stroke-opacity:1"
       id="rect904"
       width="5.7548084"
       height="4.7084794"
       x="-545.60376"
       y="-84.970436"
       inkscape:export-filename="Z:\DeepForest\Assets\Resources\Effects\JMO Assets\Cartoon FX\Textures\Timer.png"
       inkscape:export-xdpi="96"
       inkscape:export-ydpi="96" />
    <rect
       style="opacity:1;fill:#ffffff;fill-opacity:1;stroke:#ffffff;stroke-width:2.95373178;stroke-linecap:round;stroke-miterlimit:4;stroke-dasharray:none;stroke-dashoffset:0;stroke-opacity:1"
       id="rect906"
       width="19.281677"
       height="4.5501719"
       x="-552.61761"
       y="-89.143829"
       inkscape:export-filename="Z:\DeepForest\Assets\Resources\Effects\JMO Assets\Cartoon FX\Textures\Timer.png"
       inkscape:export-xdpi="96"
       inkscape:export-ydpi="96" />
    <path
       style="fill:none;stroke:#ffffff;stroke-width:7.41492891;stroke-linecap:butt;stroke-linejoin:miter;stroke-miterlimit:4;stroke-dasharray:none;stroke-opacity:1"
       d="m -566.07173,0.00974868 -6.3778,11.04665232"
       id="path908"
       inkscape:connector-curvature="0"
       inkscape:path-effect="#path-effect910"
       inkscape:original-d="m -566.07173,0.00974868 c -2.12581,3.68208592 -4.25173,7.36430402 -6.3778,11.04665232"
       inkscape:export-filename="Z:\DeepForest\Assets\Resources\Effects\JMO Assets\Cartoon FX\Textures\Timer.png"
       inkscape:export-xdpi="96"
       inkscape:export-ydpi="96" />
    <path
       style="fill:none;stroke:#ffffff;stroke-width:7.41492891;stroke-linecap:butt;stroke-linejoin:miter;stroke-miterlimit:4;stroke-dasharray:none;stroke-opacity:1"
       d="M -520.05954,-0.67271232 -513.68175,10.37394"
       id="path908-6"
       inkscape:connector-curvature="0"
       inkscape:path-effect="#path-effect910-1"
       inkscape:original-d="m -520.05954,-0.67271232 c 2.1258,3.68208602 4.25173,7.36430412 6.37779,11.04665232"
       inkscape:export-filename="Z:\DeepForest\Assets\Resources\Effects\JMO Assets\Cartoon FX\Textures\Timer.png"
       inkscape:export-xdpi="96"
       inkscape:export-ydpi="96" />
    <text
       xml:space="preserve"
       style="font-style:normal;font-variant:normal;font-weight:normal;font-stretch:normal;font-size:10.58333302px;line-height:1.25;font-family:'Comic Sans MS';-inkscape-font-specification:'Comic Sans MS';letter-spacing:0px;word-spacing:0px;fill:#ffffff;fill-opacity:1;stroke:none;stroke-width:0.26458332"
       x="-695.85419"
       y="-15.737502"
       id="text936"
       inkscape:export-filename="Z:\DeepForest\Assets\Resources\Effects\JMO Assets\Cartoon FX\Textures\11111.png"
       inkscape:export-xdpi="96"
       inkscape:export-ydpi="96"><tspan
         sodipodi:role="line"
         id="tspan934"
         x="-695.85419"
         y="-15.737502"
         style="font-size:105.83333588px;fill:#ffffff;fill-opacity:1;stroke-width:0.26458332">1</tspan></text>
    <text
       xml:space="preserve"
       style="font-style:normal;font-variant:normal;font-weight:normal;font-stretch:normal;font-size:10.58333302px;line-height:1.25;font-family:'Comic Sans MS';-inkscape-font-specification:'Comic Sans MS';letter-spacing:0px;word-spacing:0px;fill:#ffffff;fill-opacity:1;stroke:none;stroke-width:0.26458332"
       x="-817.38715"
       y="-18.590166"
       id="text936-7"
       inkscape:export-filename="Z:\DeepForest\Assets\Resources\Effects\JMO Assets\Cartoon FX\Textures\22222.png"
       inkscape:export-xdpi="96"
       inkscape:export-ydpi="96"><tspan
         sodipodi:role="line"
         id="tspan934-8"
         x="-817.38715"
         y="-18.590166"
         style="font-size:105.83333588px;fill:#ffffff;fill-opacity:1;stroke-width:0.26458332">2</tspan></text>
    <text
       xml:space="preserve"
       style="font-style:normal;font-variant:normal;font-weight:normal;font-stretch:normal;font-size:10.58333302px;line-height:1.25;font-family:'Comic Sans MS';-inkscape-font-specification:'Comic Sans MS';letter-spacing:0px;word-spacing:0px;fill:#ffffff;fill-opacity:1;stroke:none;stroke-width:0.26458332"
       x="-950.37024"
       y="-19.87224"
       id="text936-8"
       inkscape:export-filename="Z:\DeepForest\Assets\Resources\Effects\JMO Assets\Cartoon FX\Textures\33333.png"
       inkscape:export-xdpi="96"
       inkscape:export-ydpi="96"><tspan
         sodipodi:role="line"
         id="tspan934-83"
         x="-950.37024"
         y="-19.87224"
         style="font-size:105.83333588px;fill:#ffffff;fill-opacity:1;stroke-width:0.26458332">3</tspan></text>
    <text
       xml:space="preserve"
       style="font-style:normal;font-variant:normal;font-weight:normal;font-stretch:normal;font-size:10.58333302px;line-height:1.25;font-family:'Comic Sans MS';-inkscape-font-specification:'Comic Sans MS';letter-spacing:0px;word-spacing:0px;fill:#ffffff;fill-opacity:1;stroke:none;stroke-width:0.26458332"
       x="-817.18542"
       y="110.08279"
       id="text936-1"
       inkscape:export-filename="Z:\DeepForest\Assets\Resources\Effects\JMO Assets\Cartoon FX\Textures\55555.png"
       inkscape:export-xdpi="96"
       inkscape:export-ydpi="96"><tspan
         sodipodi:role="line"
         id="tspan934-4"
         x="-817.18542"
         y="110.08279"
         style="font-size:105.83333588px;fill:#ffffff;fill-opacity:1;stroke-width:0.26458332">5</tspan></text>
    <text
       xml:space="preserve"
       style="font-style:normal;font-variant:normal;font-weight:normal;font-stretch:normal;font-size:10.58333302px;line-height:1.25;font-family:'Comic Sans MS';-inkscape-font-specification:'Comic Sans MS';letter-spacing:0px;word-spacing:0px;fill:#ffffff;fill-opacity:1;stroke:none;stroke-width:0.26458332"
       x="-938.93213"
       y="109.66643"
       id="text936-83"
       inkscape:export-filename="Z:\DeepForest\Assets\Resources\Effects\JMO Assets\Cartoon FX\Textures\44444png.png"
       inkscape:export-xdpi="96"
       inkscape:export-ydpi="96"><tspan
         sodipodi:role="line"
         id="tspan934-2"
         x="-938.93213"
         y="109.66643"
         style="font-size:105.83333588px;fill:#ffffff;fill-opacity:1;stroke-width:0.26458332">4</tspan></text>
    <text
       xml:space="preserve"
       style="font-style:normal;font-variant:normal;font-weight:normal;font-stretch:normal;font-size:10.58333302px;line-height:1.25;font-family:'Comic Sans MS';-inkscape-font-specification:'Comic Sans MS';letter-spacing:0px;word-spacing:0px;fill:#ffffff;fill-opacity:1;stroke:none;stroke-width:0.26458332"
       x="-936.00385"
       y="228.24759"
       id="text936-3"
       inkscape:export-filename="Z:\DeepForest\Assets\Resources\Effects\JMO Assets\Cartoon FX\Textures\77777.png"
       inkscape:export-xdpi="96"
       inkscape:export-ydpi="96"><tspan
         sodipodi:role="line"
         id="tspan934-7"
         x="-936.00385"
         y="228.24759"
         style="font-size:105.83333588px;fill:#ffffff;fill-opacity:1;stroke-width:0.26458332">7</tspan></text>
    <text
       xml:space="preserve"
       style="font-style:normal;font-variant:normal;font-weight:normal;font-stretch:normal;font-size:10.58333302px;line-height:1.25;font-family:'Comic Sans MS';-inkscape-font-specification:'Comic Sans MS';letter-spacing:0px;word-spacing:0px;fill:#ffffff;fill-opacity:1;stroke:none;stroke-width:0.26458332"
       x="-821.70386"
       y="229.30594"
       id="text936-6"
       inkscape:export-filename="Z:\DeepForest\Assets\Resources\Effects\JMO Assets\Cartoon FX\Textures\88888.png"
       inkscape:export-xdpi="96"
       inkscape:export-ydpi="96"><tspan
         sodipodi:role="line"
         id="tspan934-27"
         x="-821.70386"
         y="229.30594"
         style="font-size:105.83333588px;fill:#ffffff;fill-opacity:1;stroke-width:0.26458332">8</tspan></text>
    <text
       xml:space="preserve"
       style="font-style:normal;font-variant:normal;font-weight:normal;font-stretch:normal;font-size:10.58333302px;line-height:1.25;font-family:'Comic Sans MS';-inkscape-font-specification:'Comic Sans MS';letter-spacing:0px;word-spacing:0px;fill:#ffffff;fill-opacity:1;stroke:none;stroke-width:0.26458332"
       x="-708.46216"
       y="224.01425"
       id="text936-0"
       inkscape:export-filename="Z:\DeepForest\Assets\Resources\Effects\JMO Assets\Cartoon FX\Textures\99999.png"
       inkscape:export-xdpi="96"
       inkscape:export-ydpi="96"><tspan
         sodipodi:role="line"
         id="tspan934-0"
         x="-708.46216"
         y="224.01425"
         style="font-size:105.83333588px;fill:#ffffff;fill-opacity:1;stroke-width:0.26458332">9</tspan></text>
    <text
       xml:space="preserve"
       style="font-style:normal;font-variant:normal;font-weight:normal;font-stretch:normal;font-size:10.58333302px;line-height:1.25;font-family:'Comic Sans MS';-inkscape-font-specification:'Comic Sans MS';letter-spacing:0px;word-spacing:0px;fill:#ffffff;fill-opacity:1;stroke:none;stroke-width:0.26458332"
       x="-706.34552"
       y="113.94761"
       id="text936-88"
       inkscape:export-filename="Z:\DeepForest\Assets\Resources\Effects\JMO Assets\Cartoon FX\Textures\66666.png"
       inkscape:export-xdpi="96"
       inkscape:export-ydpi="96"><tspan
         sodipodi:role="line"
         id="tspan934-09"
         x="-706.34552"
         y="113.94761"
         style="font-size:105.83333588px;fill:#ffffff;fill-opacity:1;stroke-width:0.26458332">6</tspan></text>
    <text
       xml:space="preserve"
       style="font-style:normal;font-variant:normal;font-weight:normal;font-stretch:normal;font-size:10.58333302px;line-height:1.25;font-family:'Comic Sans MS';-inkscape-font-specification:'Comic Sans MS';letter-spacing:0px;word-spacing:0px;fill:#ffffff;fill-opacity:1;stroke:none;stroke-width:0.26458332"
       x="-690.47052"
       y="-124.17739"
       id="text936-2"
       inkscape:export-filename="Z:\DeepForest\Assets\Resources\Effects\JMO Assets\Cartoon FX\Textures\00000.png"
       inkscape:export-xdpi="96"
       inkscape:export-ydpi="96"><tspan
         sodipodi:role="line"
         id="tspan934-03"
         x="-690.47052"
         y="-124.17739"
         style="font-size:105.83333588px;fill:#ffffff;fill-opacity:1;stroke-width:0.26458332">0</tspan></text>
    <path
       style="fill:none;stroke:#ffffff;stroke-width:6.584;stroke-linecap:butt;stroke-linejoin:miter;stroke-miterlimit:4;stroke-dasharray:none;stroke-opacity:1"
       d="m -611.18091,273.65782 c -1.73064,1.40863 -2.91172,3.47551 -3.24668,5.68167 -0.29929,1.97123 0.0571,3.9844 0.57096,5.91086 0.51385,1.92647 1.18681,3.81476 1.53939,5.77716 1.00427,5.58955 -0.64625,11.2624 -1.46101,16.8827 -0.98857,6.81927 -0.7427,13.76594 0,20.61635 1.09634,10.1123 3.32382,20.24847 8.11668,29.22004 3.51125,6.57258 8.38548,12.51248 10.55169,19.64236 0.68584,2.25737 1.08668,4.63716 0.81166,6.98033 -0.0621,0.52894 -0.15847,1.05678 -0.14853,1.58926 0.01,0.53248 0.13699,1.08205 0.47319,1.49509 0.26978,0.33144 0.65899,0.55342 1.07101,0.6669 0.41202,0.11348 0.84686,0.1239 1.27222,0.0826 0.85073,-0.0825 1.67401,-0.36718 2.52678,-0.42488 0.98026,-0.0663 1.95188,0.16919 2.922,0.32467 4.68656,0.75112 9.44072,-0.35919 14.12303,-1.13633 6.16315,-1.02291 12.42818,-1.47611 18.50602,-2.922 12.48331,-2.96971 23.73183,-10.07063 32.9537,-18.99303 9.66128,-9.34754 17.29894,-20.77615 22.2397,-33.27838"
       id="path911"
       inkscape:connector-curvature="0"
       inkscape:path-effect="#path-effect913"
       inkscape:original-d="m -611.18091,273.65782 c -1.08207,1.89374 -2.16428,3.78762 -3.24668,5.68167 -1.08238,1.89406 1.40707,7.79186 2.11035,11.68802 0.70327,3.89616 -0.97384,11.25496 -1.46101,16.8827 -0.48716,5.62772 0,13.74408 0,20.61635 0,6.87228 5.41127,19.47986 8.11668,29.22004 2.70541,9.74017 7.03461,13.09475 10.55169,19.64236 3.51706,6.5476 0.54126,4.6534 0.81166,6.98033 0.27039,2.32695 0.2166,2.05608 0.32466,3.08435 0.10807,1.02827 3.24684,0.21627 4.87001,0.32466 1.62318,0.1084 1.94816,0.21629 2.922,0.32467 0.97384,0.10839 9.41552,-0.75772 14.12303,-1.13633 4.7075,-0.37861 12.33751,-1.94817 18.50602,-2.922 6.16851,-0.97385 21.9693,-12.66219 32.9537,-18.99303 10.98442,-6.33085 14.82663,-22.18576 22.2397,-33.27838"
       inkscape:export-filename="Z:\DeepForest\Assets\Resources\Effects\JMO Assets\Cartoon FX\Textures\ToughnessOut.png"
       inkscape:export-xdpi="96"
       inkscape:export-ydpi="96" />
    <path
       style="fill:none;stroke:#ffffff;stroke-width:6.584;stroke-linecap:butt;stroke-linejoin:miter;stroke-miterlimit:4;stroke-dasharray:none;stroke-opacity:1"
       d="m -611.1809,273.65782 c 9.94839,-5.77944 21.17052,-9.35266 32.62904,-10.38934 2.32055,-0.20995 4.65031,-0.31736 6.98033,-0.32467 1.24263,-0.004 2.49185,0.0213 3.71468,0.2422 1.22284,0.22093 2.42596,0.64626 3.428,1.38114 1.53997,1.12939 2.4789,2.87743 3.409,4.54534 0.90812,1.62849 1.85725,3.24083 2.57874,4.96016 0.72149,1.71933 1.21295,3.56551 1.15494,5.42918 -0.0595,1.91046 -0.70951,3.79703 -1.83134,5.34457 -1.12183,1.54754 -2.70984,2.75073 -4.49968,3.42144 -2.41556,0.90518 -5.06794,0.83322 -7.62966,1.13634 -4.6728,0.55292 -9.12479,2.37562 -13.79836,2.922 -3.14256,0.36739 -6.35297,0.14599 -9.41534,-0.64933"
       id="path919"
       inkscape:connector-curvature="0"
       inkscape:path-effect="#path-effect921"
       inkscape:original-d="m -611.1809,273.65782 c 10.93063,-3.46328 21.75285,-6.9264 32.62904,-10.38934 10.87618,-3.46295 4.65372,-0.2166 6.98033,-0.32467 2.32662,-0.10807 4.76194,1.08207 7.14268,1.62334 2.38074,0.54127 2.27283,3.03007 3.409,4.54534 1.13617,1.51527 2.48928,6.92607 3.73368,10.38934 1.2444,3.46328 -4.22051,5.84385 -6.33102,8.76601 -2.11049,2.92217 -5.08627,0.7574 -7.62966,1.13634 -2.5434,0.37893 -9.19875,1.94784 -13.79836,2.922 -4.59961,0.97416 -6.27674,-0.43306 -9.41534,-0.64933"
       inkscape:export-filename="Z:\DeepForest\Assets\Resources\Effects\JMO Assets\Cartoon FX\Textures\ToughnessOut.png"
       inkscape:export-xdpi="96"
       inkscape:export-ydpi="96" />
    <path
       style="fill:none;stroke:#ffffff;stroke-width:6.584;stroke-linecap:butt;stroke-linejoin:miter;stroke-miterlimit:4;stroke-dasharray:none;stroke-opacity:1"
       d="m -585.36988,292.48851 c -0.0128,4.41747 0.76048,8.83609 2.27267,12.98669 1.32073,3.62509 3.22266,7.07142 5.84401,9.90235 1.25744,1.35797 2.67015,2.56524 3.92808,3.92275 1.25794,1.35751 2.37714,2.90265 2.88993,4.68093 0.52298,1.81363 0.38124,3.76659 -0.0881,5.59484 -0.46934,1.82825 -1.25367,3.55753 -2.02224,5.2815 -0.76959,1.72626 -1.52718,3.45787 -2.27268,5.19467"
       id="path923"
       inkscape:connector-curvature="0"
       inkscape:path-effect="#path-effect925"
       inkscape:original-d="m -585.36988,292.48851 c 0.75773,4.27463 1.51527,8.65763 2.27267,12.98669 0.7574,4.32906 3.89617,6.6014 5.84401,9.90235 1.94784,3.30094 4.5455,5.73561 6.81801,8.60368 2.2725,2.86805 -1.40673,7.25073 -2.11033,10.87634 -0.70361,3.62561 -1.51495,3.46294 -2.27268,5.19467"
       inkscape:export-filename="Z:\DeepForest\Assets\Resources\Effects\JMO Assets\Cartoon FX\Textures\ToughnessOut.png"
       inkscape:export-xdpi="96"
       inkscape:export-ydpi="96" />
    <path
       style="fill:none;stroke:#ffffff;stroke-width:12;stroke-linecap:butt;stroke-linejoin:miter;stroke-miterlimit:4;stroke-dasharray:none;stroke-opacity:1"
       d="m -574.81821,340.05224 c 1.87376,-6.54045 4.57528,-12.84328 8.01969,-18.71052 2.64041,-4.49769 5.88748,-8.89244 10.50899,-11.3096 2.68255,-1.40303 5.72118,-2.06691 8.74814,-2.11212 3.02697,-0.0452 6.04465,0.51508 8.92358,1.45121 0.16273,0.0529 0.32507,0.10703 0.487,0.16233 l 13.96068,4.05833"
       id="path927"
       inkscape:connector-curvature="0"
       inkscape:path-effect="#path-effect929"
       inkscape:original-d="m -574.81821,340.05224 c 2.97627,-2.75982 5.04374,-15.95102 8.01969,-18.71052 2.97596,-2.75951 -3.9286,-21.09064 10.50899,-11.3096 4.72494,3.20101 14.9122,0.52936 17.67172,-0.66091 2.75951,-1.19029 -2.59718,-0.75773 0.487,0.16233 -2.74725,32.9929 7.0699,2.38054 13.96068,4.05833"
       sodipodi:nodetypes="cssccc"
       inkscape:export-filename="Z:\DeepForest\Assets\Resources\Effects\JMO Assets\Cartoon FX\Textures\ToughnessOut.png"
       inkscape:export-xdpi="96"
       inkscape:export-ydpi="96" />
    <path
       style="fill:none;stroke:#ffffff;stroke-width:10;stroke-linecap:butt;stroke-linejoin:miter;stroke-miterlimit:4;stroke-dasharray:none;stroke-opacity:1"
       d="m -538.13081,309.53354 c -0.0772,-4.02818 0.82139,-8.07164 2.59733,-11.68802 2.22646,-4.53377 5.8387,-8.37536 10.22701,-10.87634"
       id="path931"
       inkscape:connector-curvature="0"
       inkscape:path-effect="#path-effect933"
       inkscape:original-d="m -538.13081,309.53354 c 0.86593,-3.89617 1.73172,-7.79218 2.59733,-11.68802 0.86562,-3.89584 6.81817,-7.25107 10.22701,-10.87634"
       inkscape:export-filename="Z:\DeepForest\Assets\Resources\Effects\JMO Assets\Cartoon FX\Textures\ToughnessOut.png"
       inkscape:export-xdpi="96"
       inkscape:export-ydpi="96" />
    <path
       style="fill:none;stroke:#ffffff;stroke-width:6.584;stroke-linecap:butt;stroke-linejoin:miter;stroke-miterlimit:4;stroke-dasharray:none;stroke-opacity:1"
       d="m -508.74845,320.57222 c 3.00698,1.93943 6.49806,3.1219 10.06469,3.40901 5.01967,0.40408 10.16586,-0.99942 14.28535,-3.89601"
       id="path935"
       inkscape:connector-curvature="0"
       inkscape:path-effect="#path-effect937"
       inkscape:original-d="m -508.74845,320.57222 c 3.46328,1.2444 6.70994,2.27251 10.06469,3.40901 3.35473,1.13649 9.52373,-2.59751 14.28535,-3.89601"
       inkscape:export-filename="Z:\DeepForest\Assets\Resources\Effects\JMO Assets\Cartoon FX\Textures\ToughnessOut.png"
       inkscape:export-xdpi="96"
       inkscape:export-ydpi="96" />
    <path
       style="fill:none;stroke:#ffffff;stroke-width:6.584;stroke-linecap:butt;stroke-linejoin:miter;stroke-miterlimit:4;stroke-dasharray:none;stroke-opacity:1"
       d="m -498.3591,331.77323 c 0.48538,-2.77021 1.02664,-5.53063 1.62334,-8.27901 0.0193,-0.0888 0.0386,-0.17755 0.058,-0.26631"
       id="path939"
       inkscape:connector-curvature="0"
       inkscape:path-effect="#path-effect941"
       inkscape:original-d="m -498.3591,331.77323 c 0.54127,-2.75983 1.08239,-5.5195 1.62334,-8.27901 0.54094,-2.7595 0.0388,-0.1777 0.058,-0.26631"
       inkscape:export-filename="Z:\DeepForest\Assets\Resources\Effects\JMO Assets\Cartoon FX\Textures\ToughnessOut.png"
       inkscape:export-xdpi="96"
       inkscape:export-ydpi="96" />
    <path
       style="fill:none;stroke:#ffffff;stroke-width:10;stroke-linecap:butt;stroke-linejoin:miter;stroke-miterlimit:4;stroke-dasharray:none;stroke-opacity:1"
       d="m -525.30647,286.96918 c 9.88574,-2.93826 21.15791,-0.70244 29.17376,5.78658 8.01585,6.48902 12.54976,17.04859 11.7343,27.32946 -0.004,0.047 -0.008,0.094 -0.0115,0.14102"
       id="path943"
       inkscape:connector-curvature="0"
       inkscape:path-effect="#path-effect945"
       inkscape:original-d="m -525.30647,286.96918 c 13.63618,11.03851 27.2722,22.07719 40.90806,33.11604 13.63585,11.03884 1.80524,-3.81465 -0.0115,0.14102"
       sodipodi:nodetypes="csc"
       inkscape:export-filename="Z:\DeepForest\Assets\Resources\Effects\JMO Assets\Cartoon FX\Textures\ToughnessOut.png"
       inkscape:export-xdpi="96"
       inkscape:export-ydpi="96" />
    <path
       style="fill:none;stroke:#ffffff;stroke-width:6.58400059;stroke-linecap:butt;stroke-linejoin:miter;stroke-miterlimit:4;stroke-dasharray:none;stroke-opacity:1"
       d="m -608.16412,459.03375 c -1.73064,1.40863 -2.91172,3.47551 -3.24668,5.68167 -0.29929,1.97123 0.0571,3.9844 0.57096,5.91086 0.51385,1.92647 1.18681,3.81476 1.53939,5.77716 1.00427,5.58955 -0.64625,11.2624 -1.46101,16.8827 -0.98857,6.81927 -0.7427,13.76594 0,20.61635 1.09634,10.1123 3.32382,20.24847 8.11668,29.22004 3.51125,6.57258 8.38548,12.51248 10.55169,19.64236 0.68584,2.25737 1.08668,4.63716 0.81166,6.98033 -0.0621,0.52894 -0.15847,1.05678 -0.14853,1.58926 0.01,0.53248 0.13699,1.08205 0.47319,1.49509 0.26978,0.33144 0.65899,0.55342 1.07101,0.6669 0.41202,0.11348 0.84686,0.1239 1.27222,0.0826 0.85073,-0.0825 1.67401,-0.36718 2.52678,-0.42488 0.98026,-0.0663 1.95188,0.16919 2.922,0.32467 4.68656,0.75112 9.44072,-0.35919 14.12303,-1.13633 6.16315,-1.02291 12.42818,-1.47611 18.50602,-2.922 12.48331,-2.96971 23.73183,-10.07063 32.9537,-18.99303 9.66128,-9.34754 17.29894,-20.77614 22.23971,-33.27837"
       id="path911-3"
       inkscape:connector-curvature="0"
       inkscape:path-effect="#path-effect913-5"
       inkscape:original-d="m -608.16412,459.03375 c -1.08207,1.89374 -2.16428,3.78762 -3.24668,5.68167 -1.08238,1.89406 1.40707,7.79186 2.11035,11.68802 0.70327,3.89616 -0.97384,11.25496 -1.46101,16.8827 -0.48716,5.62773 0,13.74408 0,20.61635 0,6.87228 5.41127,19.47986 8.11668,29.22004 2.70541,9.74017 7.03461,13.09475 10.55169,19.64236 3.51706,6.5476 0.54126,4.6534 0.81166,6.98033 0.27039,2.32695 0.2166,2.05608 0.32466,3.08435 0.10807,1.02827 3.24684,0.21627 4.87001,0.32466 1.62318,0.1084 1.94816,0.21629 2.922,0.32467 0.97384,0.10839 9.41552,-0.75772 14.12303,-1.13633 4.7075,-0.37861 12.33751,-1.94817 18.50602,-2.922 6.16851,-0.97385 30.87133,-31.49904 32.9537,-18.99303 12.66604,76.06787 14.91607,-17.80337 22.23971,-33.27837"
       sodipodi:nodetypes="ccccsscccccscsc"
       inkscape:export-filename="Z:\DeepForest\Assets\Resources\Effects\JMO Assets\Cartoon FX\Textures\Toughness.png"
       inkscape:export-xdpi="96"
       inkscape:export-ydpi="96" />
    <path
       style="fill:none;stroke:#ffffff;stroke-width:6.58400059;stroke-linecap:butt;stroke-linejoin:miter;stroke-miterlimit:4;stroke-dasharray:none;stroke-opacity:1"
       d="m -608.16411,459.03375 c 9.94839,-5.77944 21.17052,-9.35266 32.62904,-10.38934 2.32055,-0.20995 4.65031,-0.31736 6.98033,-0.32467 1.24263,-0.004 2.49185,0.0213 3.71468,0.2422 1.22284,0.22093 2.42596,0.64626 3.428,1.38114 1.53997,1.12939 2.4789,2.87743 3.409,4.54534 0.90812,1.62849 1.85725,3.24083 2.57874,4.96016 0.72149,1.71933 1.21295,3.56551 1.15494,5.42918 -0.0595,1.91046 -0.70951,3.79703 -1.83134,5.34457 -1.12183,1.54754 -2.70984,2.75073 -4.49968,3.42144 -2.41556,0.90518 -5.06794,0.83322 -7.62966,1.13634 -4.6728,0.55292 -9.12479,2.37562 -13.79836,2.922 -3.14256,0.36739 -6.35297,0.14599 -9.41534,-0.64933"
       id="path919-3"
       inkscape:connector-curvature="0"
       inkscape:path-effect="#path-effect921-7"
       inkscape:original-d="m -608.16411,459.03375 c 10.93063,-3.46328 21.75285,-6.9264 32.62904,-10.38934 10.87618,-3.46295 4.65372,-0.2166 6.98033,-0.32467 2.32662,-0.10807 4.76194,1.08207 7.14268,1.62334 2.38074,0.54127 2.27283,3.03007 3.409,4.54534 1.13617,1.51527 2.48928,6.92607 3.73368,10.38934 1.2444,3.46328 -4.22051,5.84385 -6.33102,8.76601 -2.11049,2.92217 -5.08627,0.7574 -7.62966,1.13634 -2.5434,0.37893 -9.19875,1.94784 -13.79836,2.922 -4.59961,0.97416 -6.27674,-0.43306 -9.41534,-0.64933"
       inkscape:export-filename="Z:\DeepForest\Assets\Resources\Effects\JMO Assets\Cartoon FX\Textures\Toughness.png"
       inkscape:export-xdpi="96"
       inkscape:export-ydpi="96" />
    <path
       style="fill:none;stroke:#ffffff;stroke-width:6.58400059;stroke-linecap:butt;stroke-linejoin:miter;stroke-miterlimit:4;stroke-dasharray:none;stroke-opacity:1"
       d="m -582.35309,477.86444 c -0.0128,4.41747 0.76048,8.83609 2.27267,12.98669 1.32073,3.62509 3.22266,7.07142 5.84401,9.90235 1.25744,1.35797 2.67015,2.56524 3.92808,3.92275 1.25794,1.35751 2.37714,2.90265 2.88993,4.68093 0.52298,1.81363 0.38124,3.76659 -0.0881,5.59484 -0.46934,1.82825 -1.25367,3.55753 -2.02224,5.2815 -0.76959,1.72626 -1.52718,3.45787 -2.27268,5.19467"
       id="path923-1"
       inkscape:connector-curvature="0"
       inkscape:path-effect="#path-effect925-7"
       inkscape:original-d="m -582.35309,477.86444 c 0.75773,4.27463 1.51527,8.65763 2.27267,12.98669 0.7574,4.32906 3.89617,6.6014 5.84401,9.90235 1.94784,3.30094 4.5455,5.73561 6.81801,8.60368 2.2725,2.86805 -1.40673,7.25073 -2.11033,10.87634 -0.70361,3.62562 -1.51495,3.46294 -2.27268,5.19467"
       inkscape:export-filename="Z:\DeepForest\Assets\Resources\Effects\JMO Assets\Cartoon FX\Textures\Toughness.png"
       inkscape:export-xdpi="96"
       inkscape:export-ydpi="96" />
    <path
       style="fill:none;stroke:#ffffff;stroke-width:12;stroke-linecap:butt;stroke-linejoin:miter;stroke-miterlimit:4;stroke-dasharray:none;stroke-opacity:1"
       d="m -571.80142,525.42817 c 1.87377,-6.54044 4.57528,-12.84327 8.01969,-18.71051 2.6404,-4.49769 5.88748,-8.89245 10.50899,-11.30961 2.68255,-1.40304 5.72118,-2.06691 8.74814,-2.11212 3.02697,-0.0452 6.04465,0.51508 8.92358,1.45121 0.16273,0.0529 0.32507,0.10703 0.487,0.16233 l 13.96068,4.05833"
       id="path927-7"
       inkscape:connector-curvature="0"
       inkscape:path-effect="#path-effect929-9"
       inkscape:original-d="m -571.80142,525.42817 c 2.97627,-2.75981 5.04374,-15.95102 8.01969,-18.71051 2.97596,-2.75952 -3.9286,-21.09065 10.50899,-11.30961 4.72494,3.20102 14.9122,0.52936 17.67172,-0.66091 2.75951,-1.19029 -2.59718,-0.75773 0.487,0.16233 -2.74725,32.9929 7.0699,2.38054 13.96068,4.05833"
       sodipodi:nodetypes="cssccc"
       inkscape:export-filename="Z:\DeepForest\Assets\Resources\Effects\JMO Assets\Cartoon FX\Textures\Toughness.png"
       inkscape:export-xdpi="96"
       inkscape:export-ydpi="96" />
    <path
       style="fill:none;stroke:#ffffff;stroke-width:10;stroke-linecap:butt;stroke-linejoin:miter;stroke-miterlimit:4;stroke-dasharray:none;stroke-opacity:1"
       d="m -535.11402,494.90947 c -0.0772,-4.02818 0.82139,-8.07164 2.59733,-11.68802 2.22646,-4.53377 5.8387,-8.37536 10.22701,-10.87634"
       id="path931-5"
       inkscape:connector-curvature="0"
       inkscape:path-effect="#path-effect933-5"
       inkscape:original-d="m -535.11402,494.90947 c 0.86593,-3.89617 1.73172,-7.79218 2.59733,-11.68802 0.86562,-3.89584 6.81817,-7.25107 10.22701,-10.87634"
       inkscape:export-filename="Z:\DeepForest\Assets\Resources\Effects\JMO Assets\Cartoon FX\Textures\Toughness.png"
       inkscape:export-xdpi="96"
       inkscape:export-ydpi="96" />
    <path
       style="fill:none;stroke:#ffffff;stroke-width:6.58400059;stroke-linecap:butt;stroke-linejoin:miter;stroke-miterlimit:4;stroke-dasharray:none;stroke-opacity:1"
       d="m -505.73166,505.94815 c 3.00698,1.93944 6.49806,3.1219 10.0647,3.40901 5.01967,0.40408 10.16585,-0.99943 14.28534,-3.89601"
       id="path935-5"
       inkscape:connector-curvature="0"
       inkscape:path-effect="#path-effect937-3"
       inkscape:original-d="m -505.73166,505.94815 c 3.46328,1.2444 6.70995,2.27251 10.0647,3.40901 3.35472,1.13649 9.52373,-2.5975 14.28534,-3.89601"
       inkscape:export-filename="Z:\DeepForest\Assets\Resources\Effects\JMO Assets\Cartoon FX\Textures\Toughness.png"
       inkscape:export-xdpi="96"
       inkscape:export-ydpi="96" />
    <path
       style="fill:none;stroke:#ffffff;stroke-width:6.58400059;stroke-linecap:butt;stroke-linejoin:miter;stroke-miterlimit:4;stroke-dasharray:none;stroke-opacity:1"
       d="m -495.3423,517.14917 c 0.48538,-2.77021 1.02664,-5.53063 1.62334,-8.27902 0.0193,-0.0888 0.0386,-0.17755 0.058,-0.26631"
       id="path939-1"
       inkscape:connector-curvature="0"
       inkscape:path-effect="#path-effect941-8"
       inkscape:original-d="m -495.3423,517.14917 c 0.54126,-2.75984 1.08238,-5.51951 1.62334,-8.27902 0.54093,-2.7595 0.0388,-0.1777 0.058,-0.26631"
       inkscape:export-filename="Z:\DeepForest\Assets\Resources\Effects\JMO Assets\Cartoon FX\Textures\Toughness.png"
       inkscape:export-xdpi="96"
       inkscape:export-ydpi="96" />
    <path
       style="fill:none;stroke:#ffffff;stroke-width:10;stroke-linecap:butt;stroke-linejoin:miter;stroke-miterlimit:4;stroke-dasharray:none;stroke-opacity:1"
       d="m -522.28968,472.34511 c 9.88574,-2.93826 21.15791,-0.70244 29.17376,5.78658 8.01585,6.48902 12.54976,17.04859 11.7343,27.32946 -0.004,0.047 -0.008,0.094 -0.0115,0.14102"
       id="path943-3"
       inkscape:connector-curvature="0"
       inkscape:path-effect="#path-effect945-4"
       inkscape:original-d="m -522.28968,472.34511 c 13.63618,11.03851 27.2722,22.07719 40.90806,33.11604 13.63585,11.03884 1.80524,-3.81465 -0.0115,0.14102"
       sodipodi:nodetypes="csc"
       inkscape:export-filename="Z:\DeepForest\Assets\Resources\Effects\JMO Assets\Cartoon FX\Textures\Toughness.png"
       inkscape:export-xdpi="96"
       inkscape:export-ydpi="96" />
    <path
       style="opacity:1;fill:#ffffff;fill-opacity:1;stroke:#ffffff;stroke-width:64.14070892;stroke-linecap:round;stroke-miterlimit:4;stroke-dasharray:none;stroke-dashoffset:0;stroke-opacity:1"
       d="m -2203.6721,2154.1827 c -4.278,-0.7294 -10.0939,-1.1222 -12.9243,-0.873 l -2.6713,-2.7288 -3.1238,-8.8612 c -6.4606,-18.3267 -7.4096,-34.7164 -29.712,-71.4895 -16.091,-26.5313 -21.4406,-37.4567 -28.114,-57.4163 -10.9564,-32.7695 -16.9864,-72.2408 -17.0388,-111.5329 -0.026,-19.1611 0.6771,-27.508 3.9291,-46.669 5.6791,-33.4613 5.5303,-48.9115 -0.7022,-72.9522 -7.9966,-30.845 -5.9666,-33.9215 33.6141,-50.9434 31.4507,-13.5255 65.5551,-21.1707 101.2909,-22.7064 28.478,-1.2238 30.5661,-0.013 43.5157,25.2429 7.0801,13.8084 8.7025,20.782 6.6033,28.3844 -3.3939,12.2919 -11.7403,17.0344 -34.1399,19.3987 -7.5457,0.7964 -23.1374,3.7376 -34.6482,6.536 -19.5465,4.7519 -22.0653,5.0468 -38.1349,4.4657 l -17.206,-0.6222 -2.9465,11.7481 c -1.6206,6.4614 -2.9465,12.0333 -2.9465,12.382 0,0.3487 5.6532,1.4065 12.5626,2.3508 l 12.5627,1.7167 1.737,10.7819 c 5.086,31.5679 17.1435,55.5912 39.2672,78.2351 l 12.0163,12.2989 -6.5728,14.7262 c -5.887,13.19 -16.9274,43.5396 -16.0545,44.1336 2.0104,1.368 32.7695,10.7877 36.8407,11.2821 2.9618,0.3597 5.8467,0.9393 6.411,1.288 0.5642,0.3487 3.1806,-5.7315 5.8143,-13.5115 6.1291,-18.1063 19.3105,-45.2993 29.0631,-59.9565 16.4698,-24.7525 32.6466,-33.3995 56.6458,-30.2788 5.3998,0.7021 23.8185,5.3848 40.9305,10.4058 17.112,5.0211 31.5234,8.698 32.0255,8.171 1.4895,-1.5636 13.0533,-42.6178 12.2347,-43.4363 -0.4133,-0.4133 -8.9499,-3.0641 -18.9703,-5.8908 -10.0204,-2.8266 -18.3985,-5.265 -18.618,-5.4187 -1.2537,-0.8776 7.3555,-20.5871 11.8308,-27.0851 5.5245,-8.0212 15.7056,-17.786 21.8831,-20.9879 6.5989,-3.4205 25.4778,-5.155 38.4982,-3.537 24.7765,3.0788 42.533,11.664 59.8333,28.9291 18.3013,18.2641 28.2506,39.8065 29.8824,64.7028 l 0.8047,12.2759 -8.3347,2.5099 c -16.4317,4.9484 -43.3409,2.0189 -53.7364,-5.85 -1.4748,-1.1164 -3.128,-2.0501 -3.6737,-2.0748 -1.2354,-0.056 -13.8571,19.3154 -13.8571,21.2675 0,2.1024 18.9809,10.8285 27.8913,12.8226 l 7.7095,1.7253 -0.9461,6.3087 c -1.9134,12.7596 -17.1234,43.59 -34.4239,69.7768 -42.3015,64.0291 -102.0469,109.7854 -163.9288,125.5454 -13.4166,3.4169 -104.4134,17.2022 -111.3665,16.8712 -1.5556,-0.074 -6.3286,-0.7315 -10.6066,-1.4608 z"
       id="path1007"
       inkscape:connector-curvature="0"
       transform="scale(0.26458333)"
       sodipodi:nodetypes="cccsccccccsccccsccsccccccccccscccccccccccccccsccccccc"
       inkscape:export-filename="Z:\DeepForest\Assets\Resources\Effects\JMO Assets\Cartoon FX\Textures\Toughness.png"
       inkscape:export-xdpi="96"
       inkscape:export-ydpi="96" />
  </g>
</svg>
