[
    {
        "id": 0,
        "level": 1,
        "monsterType": "Start",
        "monsterIDs": {
            "monsterID1": 0,
            "monsterID2": 0,
            "monsterID3": 0,
            "monsterID4": 0,
            "monsterID5": 0
        },
        "kombinationID": {
            "kombiID1": 9999,
            "kombiID2": 9999,
            "kombiID3": 9999,
            "kombiID4": 9999,
            "kombiID5": 9999
        },
        "kombiCounter": 0,
        "scale": {
            "ID1": 1.0,
            "ID2": 0.95,
            "ID3": 0.90,
            "ID4": 0.85,
            "ID5": 0.80
        },
        "position1": {
            "x": 7.19,
            "y": -0.43,
            "z": 1
        },
        "position2": {
            "x": 5.13,
            "y": 0.26,
            "z": 1.3
        },
        "position3": {
            "x": 3.19,
            "y": 1.07,
            "z": 1.6
        },
        "position4": {
            "x": 1.32,
            "y": 1.47,
            "z": 1.9
        },
        "position5": {
            "x": -0.41,
            "y": 1.84,
            "z": 2.2
        }
    }
]