%YAML 1.1
%TAG !u! tag:unity3d.com,2011:
--- !u!78 &1
TagManager:
  serializedVersion: 2
  tags:
  - Canvas
  - SlotPanel
  - goldtext
  - Animation
  - Enemys
  - Familiar
  - ItemPanel
  - DeckCounter
  - ConsumablePanel
  - Gamer
  - SkillPanel
  - Energy
  - FamiliarGhost
  - Misc
  - HandPanel
  - Focus
  - Throws
  - Shots
  - Snipers
  layers:
  - Default
  - TransparentFX
  - Ignore Raycast
  - 
  - Water
  - UI
  - 
  - 
  - Animation
  - 
  - 
  - 
  - 
  - 
  - 
  - 
  - 
  - 
  - 
  - 
  - 
  - 
  - 
  - 
  - 
  - 
  - 
  - 
  - 
  - 
  - 
  - 
  m_SortingLayers:
  - name: Default
    uniqueID: 0
    locked: 0
  - name: Hintergrund
    uniqueID: 2783978341
    locked: 0
  - name: Mittelgrund
    uniqueID: 138850409
    locked: 0
  - name: Charakter
    uniqueID: 3464918797
    locked: 0
  - name: Vordergrund
    uniqueID: 614585845
    locked: 0
  - name: UI
    uniqueID: 1848533599
    locked: 0
  - name: Animation
    uniqueID: 3113055913
    locked: 0
